<?xml version="1.0"?>
<svg xmlns="http://www.w3.org/2000/svg" xmlns:xlink="http://www.w3.org/1999/xlink" version="1.1" id="Capa_1" x="0px" y="0px" viewBox="0 0 480 480" style="enable-background:new 0 0 480 480;" xml:space="preserve" width="512px" height="512px" class=""><g><g>
	<g>
		<g>
			<path d="M240,0C107.452,0,0,107.452,0,240s107.452,240,240,240c132.486-0.15,239.85-107.514,240-240C480,107.452,372.548,0,240,0     z M240,464C116.288,464,16,363.712,16,240S116.288,16,240,16c123.653,0.141,223.859,100.347,224,224     C464,363.712,363.712,464,240,464z" data-original="#000000" class="active-path" data-old_color="#000000" fill="#474747"/>
			<path d="M309.62,109.692c3.07-3.178,2.982-8.242-0.196-11.312c-3.178-3.07-8.242-2.982-11.312,0.196L162.344,234.344     c-3.123,3.124-3.123,8.188,0,11.312l135.768,135.768c1.5,1.5,3.534,2.344,5.656,2.344c2.121,0,4.155-0.843,5.654-2.342     c3.125-3.124,3.125-8.189,0.002-11.314L179.312,240l130.112-130.112C309.491,109.824,309.556,109.758,309.62,109.692z" data-original="#000000" class="active-path" data-old_color="#000000" fill="#474747"/>
		</g>
	</g>
</g></g> </svg>
